-- Merging decision tree log ---
manifest
ADDED from /root/AndroidStudioProjects/cart/app/src/main/AndroidManifest.xml:2:1-110:12
	xmlns:android
		ADDED from /root/AndroidStudioProjects/cart/app/src/main/AndroidManifest.xml:2:11-69
	package
		ADDED from /root/AndroidStudioProjects/cart/app/src/main/AndroidManifest.xml:3:5-34
		INJECTED from /root/AndroidStudioProjects/cart/app/src/main/AndroidManifest.xml
		INJECTED from /root/AndroidStudioProjects/cart/app/src/main/AndroidManifest.xml
	android:versionName
		ADDED from /root/AndroidStudioProjects/cart/app/src/main/AndroidManifest.xml:5:5-30
	android:versionCode
		ADDED from /root/AndroidStudioProjects/cart/app/src/main/AndroidManifest.xml:4:5-28
		INJECTED from /root/AndroidStudioProjects/cart/app/src/main/AndroidManifest.xml
		INJECTED from /root/AndroidStudioProjects/cart/app/src/main/AndroidManifest.xml
uses-sdk
ADDED from /root/AndroidStudioProjects/cart/app/src/main/AndroidManifest.xml:7:5-9:41
	android:targetSdkVersion
		ADDED from /root/AndroidStudioProjects/cart/app/src/main/AndroidManifest.xml:9:9-38
		INJECTED from /root/AndroidStudioProjects/cart/app/src/main/AndroidManifest.xml
		INJECTED from /root/AndroidStudioProjects/cart/app/src/main/AndroidManifest.xml
	android:minSdkVersion
		ADDED from /root/AndroidStudioProjects/cart/app/src/main/AndroidManifest.xml:8:9-35
		INJECTED from /root/AndroidStudioProjects/cart/app/src/main/AndroidManifest.xml
		INJECTED from /root/AndroidStudioProjects/cart/app/src/main/AndroidManifest.xml
uses-permission#android.permission.INTERNET
ADDED from /root/AndroidStudioProjects/cart/app/src/main/AndroidManifest.xml:10:5-67
	android:name
		ADDED from /root/AndroidStudioProjects/cart/app/src/main/AndroidManifest.xml:10:22-64
uses-permission#android.permission.ACCESS_NETWORK_STATE
ADDED from /root/AndroidStudioProjects/cart/app/src/main/AndroidManifest.xml:11:5-12:23
	android:name
		ADDED from /root/AndroidStudioProjects/cart/app/src/main/AndroidManifest.xml:11:22-76
application
ADDED from /root/AndroidStudioProjects/cart/app/src/main/AndroidManifest.xml:16:5-108:19
	android:label
		ADDED from /root/AndroidStudioProjects/cart/app/src/main/AndroidManifest.xml:19:9-41
	android:allowBackup
		ADDED from /root/AndroidStudioProjects/cart/app/src/main/AndroidManifest.xml:17:9-35
	android:icon
		ADDED from /root/AndroidStudioProjects/cart/app/src/main/AndroidManifest.xml:18:9-38
	android:theme
		ADDED from /root/AndroidStudioProjects/cart/app/src/main/AndroidManifest.xml:20:9-40
activity#com.mobile.ict.cart.MainActivity
ADDED from /root/AndroidStudioProjects/cart/app/src/main/AndroidManifest.xml:24:9-33:20
	android:screenOrientation
		ADDED from /root/AndroidStudioProjects/cart/app/src/main/AndroidManifest.xml:25:13-49
	android:label
		ADDED from /root/AndroidStudioProjects/cart/app/src/main/AndroidManifest.xml:27:13-45
	android:name
		ADDED from /root/AndroidStudioProjects/cart/app/src/main/AndroidManifest.xml:26:13-60
intent-filter#android.intent.action.MAIN+android.intent.category.LAUNCHER
ADDED from /root/AndroidStudioProjects/cart/app/src/main/AndroidManifest.xml:28:13-32:29
action#android.intent.action.MAIN
ADDED from /root/AndroidStudioProjects/cart/app/src/main/AndroidManifest.xml:29:17-69
	android:name
		ADDED from /root/AndroidStudioProjects/cart/app/src/main/AndroidManifest.xml:29:25-66
category#android.intent.category.LAUNCHER
ADDED from /root/AndroidStudioProjects/cart/app/src/main/AndroidManifest.xml:31:17-77
	android:name
		ADDED from /root/AndroidStudioProjects/cart/app/src/main/AndroidManifest.xml:31:27-74
activity#com.mobile.ict.cart.DashboardActivity
ADDED from /root/AndroidStudioProjects/cart/app/src/main/AndroidManifest.xml:35:9-39:20
	android:screenOrientation
		ADDED from /root/AndroidStudioProjects/cart/app/src/main/AndroidManifest.xml:36:13-49
	android:label
		ADDED from /root/AndroidStudioProjects/cart/app/src/main/AndroidManifest.xml:38:13-45
	android:name
		ADDED from /root/AndroidStudioProjects/cart/app/src/main/AndroidManifest.xml:37:13-65
activity#com.mobile.ict.cart.NewOrderActivity
ADDED from /root/AndroidStudioProjects/cart/app/src/main/AndroidManifest.xml:40:9-45:20
	android:windowSoftInputMode
		ADDED from /root/AndroidStudioProjects/cart/app/src/main/AndroidManifest.xml:42:13-52
	android:screenOrientation
		ADDED from /root/AndroidStudioProjects/cart/app/src/main/AndroidManifest.xml:41:13-49
	android:label
		ADDED from /root/AndroidStudioProjects/cart/app/src/main/AndroidManifest.xml:44:13-61
	android:name
		ADDED from /root/AndroidStudioProjects/cart/app/src/main/AndroidManifest.xml:43:13-45
activity#com.mobile.ict.cart.PreviousOrdersActivity
ADDED from /root/AndroidStudioProjects/cart/app/src/main/AndroidManifest.xml:46:9-50:20
	android:screenOrientation
		ADDED from /root/AndroidStudioProjects/cart/app/src/main/AndroidManifest.xml:47:13-49
	android:label
		ADDED from /root/AndroidStudioProjects/cart/app/src/main/AndroidManifest.xml:49:13-67
	android:name
		ADDED from /root/AndroidStudioProjects/cart/app/src/main/AndroidManifest.xml:48:13-70
activity#com.mobile.ict.cart.UserManualActivity
ADDED from /root/AndroidStudioProjects/cart/app/src/main/AndroidManifest.xml:52:9-56:20
	android:screenOrientation
		ADDED from /root/AndroidStudioProjects/cart/app/src/main/AndroidManifest.xml:53:13-49
	android:label
		ADDED from /root/AndroidStudioProjects/cart/app/src/main/AndroidManifest.xml:55:13-56
	android:name
		ADDED from /root/AndroidStudioProjects/cart/app/src/main/AndroidManifest.xml:54:13-66
activity#com.mobile.ict.cart.HelpActivity
ADDED from /root/AndroidStudioProjects/cart/app/src/main/AndroidManifest.xml:57:9-60:20
	android:screenOrientation
		ADDED from /root/AndroidStudioProjects/cart/app/src/main/AndroidManifest.xml:58:13-49
	android:name
		ADDED from /root/AndroidStudioProjects/cart/app/src/main/AndroidManifest.xml:59:13-60
activity#com.mobile.ict.cart.AboutUsActivity
ADDED from /root/AndroidStudioProjects/cart/app/src/main/AndroidManifest.xml:61:9-64:20
	android:screenOrientation
		ADDED from /root/AndroidStudioProjects/cart/app/src/main/AndroidManifest.xml:62:13-49
	android:name
		ADDED from /root/AndroidStudioProjects/cart/app/src/main/AndroidManifest.xml:63:13-63
activity#com.mobile.ict.cart.SignUpActivity
ADDED from /root/AndroidStudioProjects/cart/app/src/main/AndroidManifest.xml:66:9-70:20
	android:screenOrientation
		ADDED from /root/AndroidStudioProjects/cart/app/src/main/AndroidManifest.xml:67:13-49
	android:label
		ADDED from /root/AndroidStudioProjects/cart/app/src/main/AndroidManifest.xml:69:13-59
	android:name
		ADDED from /root/AndroidStudioProjects/cart/app/src/main/AndroidManifest.xml:68:13-62
activity#com.mobile.ict.cart.CancelOrderActivity
ADDED from /root/AndroidStudioProjects/cart/app/src/main/AndroidManifest.xml:72:9-76:20
	android:screenOrientation
		ADDED from /root/AndroidStudioProjects/cart/app/src/main/AndroidManifest.xml:73:13-49
	android:label
		ADDED from /root/AndroidStudioProjects/cart/app/src/main/AndroidManifest.xml:75:13-58
	android:name
		ADDED from /root/AndroidStudioProjects/cart/app/src/main/AndroidManifest.xml:74:13-67
activity#com.mobile.ict.cart.DraftToOrder
ADDED from /root/AndroidStudioProjects/cart/app/src/main/AndroidManifest.xml:78:9-81:20
	android:screenOrientation
		ADDED from /root/AndroidStudioProjects/cart/app/src/main/AndroidManifest.xml:79:13-49
	android:name
		ADDED from /root/AndroidStudioProjects/cart/app/src/main/AndroidManifest.xml:80:13-60
activity#com.mobile.ict.cart.ConfirmOrderActivity
ADDED from /root/AndroidStudioProjects/cart/app/src/main/AndroidManifest.xml:82:9-86:20
	android:screenOrientation
		ADDED from /root/AndroidStudioProjects/cart/app/src/main/AndroidManifest.xml:83:13-49
	android:label
		ADDED from /root/AndroidStudioProjects/cart/app/src/main/AndroidManifest.xml:85:13-65
	android:name
		ADDED from /root/AndroidStudioProjects/cart/app/src/main/AndroidManifest.xml:84:13-68
activity#com.mobile.ict.cart.OrderSuccessActivity
ADDED from /root/AndroidStudioProjects/cart/app/src/main/AndroidManifest.xml:87:9-91:20
	android:screenOrientation
		ADDED from /root/AndroidStudioProjects/cart/app/src/main/AndroidManifest.xml:88:13-49
	android:label
		ADDED from /root/AndroidStudioProjects/cart/app/src/main/AndroidManifest.xml:90:13-65
	android:name
		ADDED from /root/AndroidStudioProjects/cart/app/src/main/AndroidManifest.xml:89:13-68
activity#com.mobile.ict.cart.OrderSubmitActivity
ADDED from /root/AndroidStudioProjects/cart/app/src/main/AndroidManifest.xml:92:9-96:20
	android:screenOrientation
		ADDED from /root/AndroidStudioProjects/cart/app/src/main/AndroidManifest.xml:93:13-49
	android:label
		ADDED from /root/AndroidStudioProjects/cart/app/src/main/AndroidManifest.xml:95:13-64
	android:name
		ADDED from /root/AndroidStudioProjects/cart/app/src/main/AndroidManifest.xml:94:13-67
activity#com.mobile.ict.cart.DraftOrderActivity
ADDED from /root/AndroidStudioProjects/cart/app/src/main/AndroidManifest.xml:97:9-101:20
	android:screenOrientation
		ADDED from /root/AndroidStudioProjects/cart/app/src/main/AndroidManifest.xml:98:13-49
	android:label
		ADDED from /root/AndroidStudioProjects/cart/app/src/main/AndroidManifest.xml:100:13-57
	android:name
		ADDED from /root/AndroidStudioProjects/cart/app/src/main/AndroidManifest.xml:99:13-66
activity#com.mobile.ict.cart.OrderDraftActivity
ADDED from /root/AndroidStudioProjects/cart/app/src/main/AndroidManifest.xml:102:9-106:20
	android:screenOrientation
		ADDED from /root/AndroidStudioProjects/cart/app/src/main/AndroidManifest.xml:103:13-49
	android:label
		ADDED from /root/AndroidStudioProjects/cart/app/src/main/AndroidManifest.xml:105:13-57
	android:name
		ADDED from /root/AndroidStudioProjects/cart/app/src/main/AndroidManifest.xml:104:13-66
